 1 | 0 | 0 | 0 | 0 | 2 |   |   |   |   |
 2 | 0 | 0 | 0 | 0 | 2 |   |   |   |   |
 3 | 2 | 2 | 1 | 0 | 1 | 2 | 3 | 3 |   |
 4 |   |   | 1 | 0 | 0 | 0 | 0 | 1 |   |
 5 |   |   | 1 | 0 | 0 | 1 | 1 | 2 | 1 |
 6 |   |   | 1 | 0 | 0 | 1 |   | 1 | 0 |
 7 |   |   | 1 | 0 | 0 | 1 | 1 | 1 | 0 |
 8 | 2 | 2 | 1 | 0 | 0 | 0 | 0 | 0 | 0 |
 9 | 0 | 0 | 0 | 0 | 0 | 0 | 0 | 0 | 0 |
